// Jest Snapshot v1, https://goo.gl/fbAQLP

exports[`Testing Episode Card Testing proper Rendering 1`] = `
<View
  style={
    Object {
      "backgroundColor": "rgb(60,62,68)",
      "borderRadius": 8,
      "margin": 10,
      "width": 562.5,
    }
  }
>
  <View
    style={
      Object {
        "display": "flex",
        "flexDirection": "column",
        "padding": 10,
      }
    }
  >
    <Text
      style={
        Object {
          "color": "rgb(158, 158, 158)",
          "fontSize": 16,
          "paddingHorizontal": 5,
        }
      }
    >
      Episode Name:
    </Text>
    <Text
      style={
        Object {
          "color": "#fff",
          "fontSize": 16,
          "fontWeight": "500",
        }
      }
      testID="name"
    >
      Pilot
    </Text>
    <Text
      style={
        Object {
          "color": "rgb(158, 158, 158)",
          "fontSize": 16,
          "paddingHorizontal": 5,
        }
      }
    >
      Episode AirDate:
    </Text>
    <Text
      style={
        Object {
          "color": "#fff",
          "fontSize": 16,
          "fontWeight": "500",
        }
      }
      testID="air_date"
    >
      11-02-2020
    </Text>
    <Text
      style={
        Object {
          "color": "rgb(158, 158, 158)",
          "fontSize": 16,
          "paddingHorizontal": 5,
        }
      }
    >
      Episode Code:
    </Text>
    <Text
      style={
        Object {
          "color": "#fff",
          "fontSize": 16,
          "fontWeight": "500",
        }
      }
      testID="episode"
    >
      S1-11
    </Text>
    <Text
      style={
        Object {
          "color": "rgb(158, 158, 158)",
          "fontSize": 16,
          "paddingHorizontal": 5,
        }
      }
    >
      Created On:
    </Text>
    <Text
      style={
        Object {
          "color": "#fff",
          "fontSize": 16,
          "fontWeight": "500",
        }
      }
      testID="created"
    >
      11-01-2020
    </Text>
  </View>
</View>
`;
